<svg width="14" height="15" viewBox="0 0 14 15" fill="none" xmlns="http://www.w3.org/2000/svg">
<path d="M9.71063 11.1227V9.08956H4.96666V6.37872H9.71063V4.34559L13.0992 7.73414L9.71063 11.1227ZM8.35521 0.957031C8.71469 0.957031 9.05945 1.09983 9.31364 1.35403C9.56783 1.60822 9.71063 1.95297 9.71063 2.31245V3.66788H8.35521V2.31245H2.25581V13.1558H8.35521V11.8004H9.71063V13.1558C9.71063 13.5153 9.56783 13.8601 9.31364 14.1143C9.05945 14.3684 8.71469 14.5113 8.35521 14.5113H2.25581C1.89633 14.5113 1.55158 14.3684 1.29738 14.1143C1.04319 13.8601 0.900391 13.5153 0.900391 13.1558V2.31245C0.900391 1.95297 1.04319 1.60822 1.29738 1.35403C1.55158 1.09983 1.89633 0.957031 2.25581 0.957031H8.35521Z" fill="#757575"/>
</svg>
